Chapter 4 Stats used in eeb II | A primer for biostatistics in R
…
A statistical model is an elegant, representative simplification of the patterns you have identified through data viz and EDA (Mengersen et al. 2013). It is a formal mathematical relationship between factors of interest. It should capture data/experimental structure including the key variables, appropriate levels, and relevant covariation or contexts that mediate outcomes. It should support the data viz. It should provide an estimate of the statistical likelihood or probability of differences. Ideally, the underlying coefficients should also be mined to convey an estimate of effect sizes. A t.test, chi.square test, regression/linear model, general linear model, or generalized linear mixed model are all examples of models that describe and summarize patterns and each have associated assumptions about the data they embody. Hence, the final step pre-model fit, is explore distributions.

Conceptually, there are two kind of models. Those that look back and those that look forward. Think tardis or time machine. A model is always a snapshot using your time machine. It can be a grab of what happened or a future snap of what you predict. In R, there is simple code to time travel in either direction. Actually, there is no time - Arrow of time - only an observer potential perception of it. Statistical models are our observers here. These observers use ‘probability distributions’ as we described in the first week sensu statistical thinking to calibrate what the think critically when observed or will observe given the evidence at hand. Here are two super resources to further support this in a proximate sense that align with critical thinking. Choosing the correct statistical test made easy (Gunawardana 2004), and a flowchart for selecting commonly used statistics developed by Bates College.

Adventure time

Here is an impressive dataset describing bird counts in Toronto. These data were collected by York University undergraduates in an experimental design course. Explore whether there is a bias in detection by behaviour and identify the most common species by location in Toronto - at least as estimated using these data. For your curiosity, here are data collected in another larger citizen science endeavour - The Christmas Bird Count for Southern Ontario region centered around the Greater Toronto Area.

Deeper dive: If you wish to adventure further afield, contrast the two datasets. Explore fitting a different family to the data or explore offset argument versus covariates.

library(tidyverse)
birds <- read_csv(url("https://knb.ecoinformatics.org/knb/d1/mn/v2/object/urn%3Auuid%3Aa84a9673-878a-4c43-ba08-570b2d38bdc9"))
birds

## # A tibble: 826 x 11
##     year experiment   source   rep date   location  species  frequency behaviour
##    <dbl> <chr>        <chr>  <dbl> <chr>  <chr>     <chr>        <dbl> <chr>    
##  1  2020 balcony bir… full       1 10/13… Holditch… Agelaiu…         3 flying   
##  2  2020 balcony bir… full       1 10/13… Holditch… Agelaiu…         4 flying   
##  3  2020 balcony bir… full       1 10/13… Holditch… Agelaiu…         1 perching 
##  4  2020 balcony bir… full       1 10/16… High Park Aix spi…         4 swimming 
##  5  2020 balcony bir… full       1 10/9/… Vaughan   Anas pl…         4 flying   
##  6  2020 balcony bir… full       1 10/9/… Vaughan   Anas pl…         6 flying   
##  7  2020 balcony bir… full       1 10/9/… Vaughan   Anas pl…         9 flying   
##  8  2020 balcony bir… full       1 10/9/… Vaughan   Anas pl…        10 flying   
##  9  2020 balcony bir… full       1 10/9/… Vaughan   Anas pl…         2 inactive 
## 10  2020 balcony bir… full       1 10/9/… Vaughan   Anas pl…         2 inactive 
## # … with 816 more rows, and 2 more variables: inititals <chr>,
## #   citation_DOI <chr>
…
