Chapter 5 Hackathon | A primer for biostatistics in R
…
Candy. Candy. Candy. Take a peek at these sweet data. Contrast Canada and USA candy sales at Halloween. Considering including population density in your model for each country for each year so as not to introduce variation and to be more accurate in estimating meaningful differences.

Canadian Candy

USA Candy & Halloween spending

Human population densities

Deeper dive: contrast GLMM model performance, examine temporal effects, or explore GAMs.

library(tidyverse)
Canada <- read_csv(url("https://ndownloader.figshare.com/files/28935657"))
Canada

## # A tibble: 228 x 3
##    month  year  candy
##    <dbl> <dbl>  <dbl>
##  1     1  1997 101014
##  2     2  1997 101938
##  3     3  1997 136057
##  4     4  1997 105601
##  5     5  1997 119123
##  6     6  1997 107689
##  7     7  1997 113399
##  8     8  1997 113934
##  9     9  1997 109441
## 10    10  1997 146876
## # … with 218 more rows
…
humans <- read_csv(url("https://ndownloader.figshare.com/files/28935663"))
humans

## # A tibble: 264 x 21
##    `Country Name`       `Country Code` `1997` `1998` `1999` `2000` `2001` `2002`
##    <chr>                <chr>           <dbl>  <dbl>  <dbl>  <dbl>  <dbl>  <dbl>
##  1 Aruba                ABW             475.   485.   494.   505.   516.   528. 
##  2 Andorra              AND             136.   136.   137.   139.   144.   151. 
##  3 Afghanistan          AFG              27.6   28.4   29.2   30.2   31.4   32.9
##  4 Angola               AGO              11.1   11.4   11.7   12.1   12.5   12.9
##  5 Albania              ALB             115.   114.   113.   113.   112.   111. 
##  6 Arab World           ARB              19.4   19.8   20.2   20.6   21.1   21.5
##  7 United Arab Emirates ARE              31.0   32.7   34.5   36.5   38.5   40.6
##  8 Argentina            ARG              13.1   13.2   13.4   13.5   13.7   13.8
##  9 Armenia              ARM             110.   109.   109.   108.   107.   107. 
## 10 American Samoa       ASM             275.   279.   284.   288.   291.   294. 
## # … with 254 more rows, and 13 more variables: 2003 <dbl>, 2004 <dbl>,
## #   2005 <dbl>, 2006 <dbl>, 2007 <dbl>, 2008 <dbl>, 2009 <dbl>, 2010 <dbl>,
## #   2011 <dbl>, 2012 <dbl>, 2013 <dbl>, 2014 <dbl>, 2015 <dbl>
…
