Chapter 6 Test | A primer for biostatistics in R
…
library(tidyverse)
trees <- read_csv(url("https://knb.ecoinformatics.org/knb/d1/mn/v2/object/urn%3Auuid%3A1e738f4d-f491-4b40-b55a-e8395c5349ce"))  
trees

## # A tibble: 6,951 × 27
##      FID OBJECTID Date   Block Street_or_  Build…¹ Tree_…² Speci…³ Commo…⁴ Genus
##    <dbl>    <dbl> <chr>  <chr> <chr>         <dbl>   <dbl> <chr>   <chr>   <chr>
##  1     0        1 9/7/12 A     Stedman Le…      22       1 lochon  Honey … Gled…
##  2     1        2 9/7/12 A     Stedman Le…      22       2 lochon  Honey … Gled…
##  3     2        3 9/7/12 A     Stedman Le…      22       3 lochon  Honey … Gled…
##  4     3        4 9/7/12 A     Stedman Le…      22       4 lochon  Honey … Gled…
##  5     4        5 9/7/12 A     Stedman Le…      22       5 lochon  Honey … Gled…
##  6     5        6 9/7/12 A     Stedman Le…      22       6 lochon  Honey … Gled…
##  7     6        7 9/7/12 A     Stedman Le…      22       7 lochon  Honey … Gled…
##  8     7        8 9/7/12 A     Stedman Le…      22       8 lochon  Honey … Gled…
##  9     8        9 9/7/12 A     Stedman Le…      22       9 lochon  Honey … Gled…
## 10     9       10 9/7/12 A     Stedman Le…      22      10 lochon  Honey … Gled…
## # … with 6,941 more rows, 17 more variables: Species <chr>, DBH <dbl>,
## #   Number_of_ <dbl>, Percentage <dbl>, Crown_Widt <dbl>, Total_Heig <dbl>,
## #   Latitude <dbl>, Longitude <dbl>, Height_to_ <dbl>, Unbalanced <dbl>,
## #   Reduced_Cr <dbl>, Weak_Yello <dbl>, Defoliatio <dbl>, Dead_Broke <dbl>,
## #   Poor_Branc <dbl>, Lean <dbl>, Trunk_Scar <dbl>, and abbreviated variable
## #   names ¹​Building_C, ²​Tree_Tag_N, ³​Species_Co, ⁴​Common_Nam
## # ℹ Use `print(n = ...)` to see more rows, and `colnames()` to see all variable names
…
